{
  "introFile": "courseware-intro.jade",
  "header": "Školení frameworku AngularJS - www.angular.cz",
  "todoFilePath": "complete/todo.jade",
  "todos": [
    "00-javascript",
    "01-templates",
    "02-controller",
    "03-scope",
    "04-protractor",
    "05-di",
    "06-di-unit-testing",
    "07-di-provider",
    "08-directive-basic",
    "09-directive-scope",
    "09-component-basic",
    "10-component",
    "11-filter",
    "12-form",
    "13-router",
    "14-resource",
    "15-auth",
    "16-auth-interactive"
  ],
  "testsSocket": true,
  "testsResultsPath": "test-results"
}
